^C:\USERS\ARTLI\DESKTOP\UE\C++\HW_26\DEBUG\HW_26.OBJ
C:\USERS\ARTLI\DESKTOP\UE\C++\HW_26\DEBUG\HW_26.EXE
C:\USERS\ARTLI\DESKTOP\UE\C++\HW_26\DEBUG\HW_26.ILK
C:\USERS\ARTLI\DESKTOP\UE\C++\HW_26\DEBUG\HW_26.PDB
